{
  "$schema": "http://json-schema.org/draft-07/schema#",
  "title": "Person",
  "type": "object",
  "properties": {
    "traits": {
      "type": "object",
      "properties": {
        "username": {
          "type": "string",
          "title": "Username",
          "minLength": 3,
          "ory.sh/kratos": {
            "credentials": {
              "password": {
                "identifier": true
              },
              "webauthn": {
                "identifier": true
              },
              "totp": {
                "account_name": true
              }
            }
          }
        }
      },
      "required": ["username"],
      "additionalProperties": false
    }
  }
}
